{
    "carousels": [
        {
            "header": {
                "title": "Quick picks",
                "subheading": "START RADIO FROM A SONG"
            },
            "items": [
                {
                    "subtitle": [
                        {
                            "text": "Arijit Singh",
                            "browseId": "UCDxKh1gFWeYsqePvgVzmPoQ",
                            "pageType": "MUSIC_PAGE_TYPE_ARTIST"
                        },
                        {
                            "text": " & "
                        },
                        {
                            "text": "Sachin-Jigar",
                            "browseId": "UCcuXjaACiyViK8QTuztjR6A",
                            "pageType": "MUSIC_PAGE_TYPE_ARTIST"
                        }
                    ],
                    "artistInfo": {
                        "artist": [
                            {
                                "text": "Arijit Singh",
                                "browseId": "UCDxKh1gFWeYsqePvgVzmPoQ",
                                "pageType": "MUSIC_PAGE_TYPE_ARTIST"
                            }
                        ]
                    },
                    "explicit": false,
                    "title": "Apna Bana Le (From \"Bhediya\")",
                    "aspectRatio": "MUSIC_RESPONSIVE_LIST_ITEM_FLEX_COLUMN_DISPLAY_STYLE_TWO_LINE_STACK",
                    "musicVideoType": "MUSIC_VIDEO_TYPE_ATV",
                    "videoId": "YALvuUpY_b0",
                    "playlistId": "RDAMVMYALvuUpY_b0",
                    "thumbnails": [
                        {
                            "url": "https://beatbump.io/i/lh3/EqN-4y9jQg91mt-94KKI8L1xu3olMS-Fh_WLL5tMlnqh1pSRzt-uWdnTVlY_GBnvLuA_WJmS6FYAXJlZtQ=w60-h60-l90-rw",
                            "width": 60,
                            "height": 60,
                            "placeholder": "https://beatbump.io/i/lh3/EqN-4y9jQg91mt-94KKI8L1xu3olMS-Fh_WLL5tMlnqh1pSRzt-uWdnTVlY_GBnvLuA_WJmS6FYAXJlZtQ=w1-h1-fSoften=50,50,05-l90-rw"
                        },
                        {
                            "url": "https://beatbump.io/i/lh3/EqN-4y9jQg91mt-94KKI8L1xu3olMS-Fh_WLL5tMlnqh1pSRzt-uWdnTVlY_GBnvLuA_WJmS6FYAXJlZtQ=w120-h120-l90-rw",
                            "width": 120,
                            "height": 120,
                            "placeholder": "https://beatbump.io/i/lh3/EqN-4y9jQg91mt-94KKI8L1xu3olMS-Fh_WLL5tMlnqh1pSRzt-uWdnTVlY_GBnvLuA_WJmS6FYAXJlZtQ=w1-h1-fSoften=50,50,05-l90-rw"
                        }
                    ],
                    "playerParams": "wAEB",
                    "clickTrackingParams": "CKYEEMjeAiITCPPijOnD7oQDFe2I2AUdFDAM0w==",
                    "loggingContext": {
                        "vssLoggingContext": {
                            "serializedContextData": "GhFSREFNVk1ZQUx2dVVwWV9iMA%3D%3D"
                        }
                    }
                },
                {
                    "subtitle": [
                        {
                            "text": "Raghav",
                            "browseId": "UCpXLGeFQVHdv_TCmff5eB_Q",
                            "pageType": "MUSIC_PAGE_TYPE_ARTIST"
                        },
                        {
                            "text": ", "
                        },
                        {
                            "text": "Tanishk Bagchi",
                            "browseId": "UCqzQ51ZqgxPvIGGAVUdcuVA",
                            "pageType": "MUSIC_PAGE_TYPE_ARTIST"
                        },
                        {
                            "text": " & "
                        },
                        {
                            "text": "Asees Kaur",
                            "browseId": "UCvfE4xZDghK_FlDVSgPTKyw",
                            "pageType": "MUSIC_PAGE_TYPE_ARTIST"
                        }
                    ],
                    "artistInfo": {
                        "artist": [
                            {
                                "text": "Raghav",
                                "browseId": "UCpXLGeFQVHdv_TCmff5eB_Q",
                                "pageType": "MUSIC_PAGE_TYPE_ARTIST"
                            }
                        ]
                    },
                    "explicit": false,
                    "title": "Teri Baaton Mein Aisa Uljha Jiya Title Song",
                    "aspectRatio": "MUSIC_RESPONSIVE_LIST_ITEM_FLEX_COLUMN_DISPLAY_STYLE_TWO_LINE_STACK",
                    "musicVideoType": "MUSIC_VIDEO_TYPE_ATV",
                    "videoId": "YEp76bA-6rA",
                    "playlistId": "RDAMVMYEp76bA-6rA",
                    "thumbnails": [
                        {
                            "url": "https://beatbump.io/i/lh3/FMv7FYqkppHAM9Sn43aneV3eql6nCHldW0OO4ZvoimckHHKwM4Io8NWCdLjarWnh-ecC_LrdpYs3PJ_v=w60-h60-l90-rw",
                            "width": 60,
                            "height": 60,
                            "placeholder": "https://beatbump.io/i/lh3/FMv7FYqkppHAM9Sn43aneV3eql6nCHldW0OO4ZvoimckHHKwM4Io8NWCdLjarWnh-ecC_LrdpYs3PJ_v=w1-h1-fSoften=50,50,05-l90-rw"
                        },
                        {
                            "url": "https://beatbump.io/i/lh3/FMv7FYqkppHAM9Sn43aneV3eql6nCHldW0OO4ZvoimckHHKwM4Io8NWCdLjarWnh-ecC_LrdpYs3PJ_v=w120-h120-l90-rw",
                            "width": 120,
                            "height": 120,
                            "placeholder": "https://beatbump.io/i/lh3/FMv7FYqkppHAM9Sn43aneV3eql6nCHldW0OO4ZvoimckHHKwM4Io8NWCdLjarWnh-ecC_LrdpYs3PJ_v=w1-h1-fSoften=50,50,05-l90-rw"
                        }
                    ],
                    "playerParams": "wAEB",
                    "clickTrackingParams": "CJMEEMjeAiITCPPijOnD7oQDFe2I2AUdFDAM0w==",
                    "loggingContext": {
                        "vssLoggingContext": {
                            "serializedContextData": "GhFSREFNVk1ZRXA3NmJBLTZyQQ%3D%3D"
                        }
                    }
                },
                {
                    "subtitle": [
                        {
                            "text": "Simpal Kharel",
                            "browseId": "UCYuKDbN1egdr1wQHLYB79IA",
                            "pageType": "MUSIC_PAGE_TYPE_ARTIST"
                        }
                    ],
                    "artistInfo": {
                        "artist": [
                            {
                                "text": "Simpal Kharel",
                                "browseId": "UCYuKDbN1egdr1wQHLYB79IA",
                                "pageType": "MUSIC_PAGE_TYPE_ARTIST"
                            }
                        ]
                    },
                    "explicit": false,
                    "title": "Radha Rani Lage",
                    "aspectRatio": "MUSIC_RESPONSIVE_LIST_ITEM_FLEX_COLUMN_DISPLAY_STYLE_TWO_LINE_STACK",
                    "musicVideoType": "MUSIC_VIDEO_TYPE_ATV",
                    "videoId": "4Sq1acBgxRM",
                    "playlistId": "RDAMVM4Sq1acBgxRM",
                    "thumbnails": [
                        {
                            "url": "https://beatbump.io/i/lh3/GKC3nhmGLOznorgWsid0owU6nQ7AxUx_wX2lxDmfgs4E2BRj9-qTInkC5VQRohGfd882wyxRpZQ89rxm=w60-h60-l90-rw",
                            "width": 60,
                            "height": 60,
                            "placeholder": "https://beatbump.io/i/lh3/GKC3nhmGLOznorgWsid0owU6nQ7AxUx_wX2lxDmfgs4E2BRj9-qTInkC5VQRohGfd882wyxRpZQ89rxm=w1-h1-fSoften=50,50,05-l90-rw"
                        },
                        {
                            "url": "https://beatbump.io/i/lh3/GKC3nhmGLOznorgWsid0owU6nQ7AxUx_wX2lxDmfgs4E2BRj9-qTInkC5VQRohGfd882wyxRpZQ89rxm=w120-h120-l90-rw",
                            "width": 120,
                            "height": 120,
                            "placeholder": "https://beatbump.io/i/lh3/GKC3nhmGLOznorgWsid0owU6nQ7AxUx_wX2lxDmfgs4E2BRj9-qTInkC5VQRohGfd882wyxRpZQ89rxm=w1-h1-fSoften=50,50,05-l90-rw"
                        }
                    ],
                    "playerParams": "wAEB",
                    "clickTrackingParams": "CIAEEMjeAiITCPPijOnD7oQDFe2I2AUdFDAM0w==",
                    "loggingContext": {
                        "vssLoggingContext": {
                            "serializedContextData": "GhFSREFNVk00U3ExYWNCZ3hSTQ%3D%3D"
                        }
                    }
                },
                {
                    "subtitle": [
                        {
                            "text": "Jasleen Royal",
                            "browseId": "UCrGjomj3RMnN6eymDGhmsFw",
                            "pageType": "MUSIC_PAGE_TYPE_ARTIST"
                        },
                        {
                            "text": " & "
                        },
                        {
                            "text": "Arijit Singh",
                            "browseId": "UCDxKh1gFWeYsqePvgVzmPoQ",
                            "pageType": "MUSIC_PAGE_TYPE_ARTIST"
                        }
                    ],
                    "artistInfo": {
                        "artist": [
                            {
                                "text": "Jasleen Royal",
                                "browseId": "UCrGjomj3RMnN6eymDGhmsFw",
                                "pageType": "MUSIC_PAGE_TYPE_ARTIST"
                            }
                        ]
                    },
                    "explicit": false,
                    "title": "Heeriye",
                    "aspectRatio": "MUSIC_RESPONSIVE_LIST_ITEM_FLEX_COLUMN_DISPLAY_STYLE_TWO_LINE_STACK",
                    "musicVideoType": "MUSIC_VIDEO_TYPE_ATV",
                    "videoId": "4VwtfInG-LU",
                    "playlistId": "RDAMVM4VwtfInG-LU",
                    "thumbnails": [
                        {
                            "url": "https://beatbump.io/i/lh3/IUaNm7SOpB6sip0Q_VCWbLLaQ_rnqgH4gy7_i_7GwWFsDFR3BK6CzAQJpg7IN2UUqGgE79lAeBEYTxh18A=w60-h60-l90-rw",
                            "width": 60,
                            "height": 60,
                            "placeholder": "https://beatbump.io/i/lh3/IUaNm7SOpB6sip0Q_VCWbLLaQ_rnqgH4gy7_i_7GwWFsDFR3BK6CzAQJpg7IN2UUqGgE79lAeBEYTxh18A=w1-h1-fSoften=50,50,05-l90-rw"
                        },
                        {
                            "url": "https://beatbump.io/i/lh3/IUaNm7SOpB6sip0Q_VCWbLLaQ_rnqgH4gy7_i_7GwWFsDFR3BK6CzAQJpg7IN2UUqGgE79lAeBEYTxh18A=w120-h120-l90-rw",
                            "width": 120,
                            "height": 120,
                            "placeholder": "https://beatbump.io/i/lh3/IUaNm7SOpB6sip0Q_VCWbLLaQ_rnqgH4gy7_i_7GwWFsDFR3BK6CzAQJpg7IN2UUqGgE79lAeBEYTxh18A=w1-h1-fSoften=50,50,05-l90-rw"
                        }
                    ],
                    "playerParams": "wAEB",
                    "clickTrackingParams": "CO0DEMjeAiITCPPijOnD7oQDFe2I2AUdFDAM0w==",
                    "loggingContext": {
                        "vssLoggingContext": {
                            "serializedContextData": "GhFSREFNVk00Vnd0ZkluRy1MVQ%3D%3D"
                        }
                    }
                },
                {
                    "subtitle": [
                        {
                            "text": "M.M. Sreelekha",
                            "browseId": "UCw6ackyQv-yPbRAv0zQJojQ",
                            "pageType": "MUSIC_PAGE_TYPE_ARTIST"
                        },
                        {
                            "text": ", "
                        },
                        {
                            "text": "Sid Sriram",
                            "browseId": "UC7_KgmSrwM247k2lnh5GhHw",
                            "pageType": "MUSIC_PAGE_TYPE_ARTIST"
                        },
                        {
                            "text": " & "
                        },
                        {
                            "text": "Ramya Behara",
                            "browseId": "UCrqYQRTptwGcm9b-koSpSoA",
                            "pageType": "MUSIC_PAGE_TYPE_ARTIST"
                        }
                    ],
                    "artistInfo": {
                        "artist": [
                            {
                                "text": "M.M. Sreelekha",
                                "browseId": "UCw6ackyQv-yPbRAv0zQJojQ",
                                "pageType": "MUSIC_PAGE_TYPE_ARTIST"
                            }
                        ]
                    },
                    "explicit": false,
                    "title": "Urike Urike",
                    "aspectRatio": "MUSIC_RESPONSIVE_LIST_ITEM_FLEX_COLUMN_DISPLAY_STYLE_TWO_LINE_STACK",
                    "musicVideoType": "MUSIC_VIDEO_TYPE_ATV",
                    "videoId": "S072HjMJZY0",
                    "playlistId": "RDAMVMS072HjMJZY0",
                    "thumbnails": [
                        {
                            "url": "https://beatbump.io/i/lh3/fwKC0N9TtY0ZMD_mOEtPMhg786Jt_7ML3osriZjxMoRR8MFV-GsNGOar5slrGuu3KY3pHlVJcaEVft65=w60-h60-l90-rw",
                            "width": 60,
                            "height": 60,
                            "placeholder": "https://beatbump.io/i/lh3/fwKC0N9TtY0ZMD_mOEtPMhg786Jt_7ML3osriZjxMoRR8MFV-GsNGOar5slrGuu3KY3pHlVJcaEVft65=w1-h1-fSoften=50,50,05-l90-rw"
                        },
                        {
                            "url": "https://beatbump.io/i/lh3/fwKC0N9TtY0ZMD_mOEtPMhg786Jt_7ML3osriZjxMoRR8MFV-GsNGOar5slrGuu3KY3pHlVJcaEVft65=w120-h120-l90-rw",
                            "width": 120,
                            "height": 120,
                            "placeholder": "https://beatbump.io/i/lh3/fwKC0N9TtY0ZMD_mOEtPMhg786Jt_7ML3osriZjxMoRR8MFV-GsNGOar5slrGuu3KY3pHlVJcaEVft65=w1-h1-fSoften=50,50,05-l90-rw"
                        }
                    ],
                    "playerParams": "wAEB",
                    "clickTrackingParams": "CNoDEMjeAiITCPPijOnD7oQDFe2I2AUdFDAM0w==",
                    "loggingContext": {
                        "vssLoggingContext": {
                            "serializedContextData": "GhFSREFNVk1TMDcySGpNSlpZMA%3D%3D"
                        }
                    }
                },
                {
                    "subtitle": [
                        {
                            "text": "R Maan",
                            "browseId": "UC0lnr9N6yX4jss6ucbpw3_g",
                            "pageType": "MUSIC_PAGE_TYPE_ARTIST"
                        },
                        {
                            "text": " & "
                        },
                        {
                            "text": "Deepty",
                            "browseId": "UCZEVcuuj9QCNx4IifePTigw",
                            "pageType": "MUSIC_PAGE_TYPE_ARTIST"
                        }
                    ],
                    "artistInfo": {
                        "artist": [
                            {
                                "text": "R Maan",
                                "browseId": "UC0lnr9N6yX4jss6ucbpw3_g",
                                "pageType": "MUSIC_PAGE_TYPE_ARTIST"
                            }
                        ]
                    },
                    "explicit": false,
                    "title": "System Pe System",
                    "aspectRatio": "MUSIC_RESPONSIVE_LIST_ITEM_FLEX_COLUMN_DISPLAY_STYLE_TWO_LINE_STACK",
                    "musicVideoType": "MUSIC_VIDEO_TYPE_ATV",
                    "videoId": "T5p9lrLbv3o",
                    "playlistId": "RDAMVMT5p9lrLbv3o",
                    "thumbnails": [
                        {
                            "url": "https://beatbump.io/i/lh3/ovA2eRxX0fXjC_2Etz6ab6J95xcTR9NBhU7uNPfAmY190zGDA6QTP9-iT5A1cM0TJS17EbbXerVuBaU=w60-h60-l90-rw",
                            "width": 60,
                            "height": 60,
                            "placeholder": "https://beatbump.io/i/lh3/ovA2eRxX0fXjC_2Etz6ab6J95xcTR9NBhU7uNPfAmY190zGDA6QTP9-iT5A1cM0TJS17EbbXerVuBaU=w1-h1-fSoften=50,50,05-l90-rw"
                        },
                        {
                            "url": "https://beatbump.io/i/lh3/ovA2eRxX0fXjC_2Etz6ab6J95xcTR9NBhU7uNPfAmY190zGDA6QTP9-iT5A1cM0TJS17EbbXerVuBaU=w120-h120-l90-rw",
                            "width": 120,
                            "height": 120,
                            "placeholder": "https://beatbump.io/i/lh3/ovA2eRxX0fXjC_2Etz6ab6J95xcTR9NBhU7uNPfAmY190zGDA6QTP9-iT5A1cM0TJS17EbbXerVuBaU=w1-h1-fSoften=50,50,05-l90-rw"
                        }
                    ],
                    "playerParams": "wAEB",
                    "clickTrackingParams": "CMcDEMjeAiITCPPijOnD7oQDFe2I2AUdFDAM0w==",
                    "loggingContext": {
                        "vssLoggingContext": {
                            "serializedContextData": "GhFSREFNVk1UNXA5bHJMYnYzbw%3D%3D"
                        }
                    }
                },
                {
                    "subtitle": [
                        {
                            "text": "Anirudh Ravichander",
                            "browseId": "UCbRSywya_rl8YS15Lo9ttsA",
                            "pageType": "MUSIC_PAGE_TYPE_ARTIST"
                        }
                    ],
                    "artistInfo": {
                        "artist": [
                            {
                                "text": "Anirudh Ravichander",
                                "browseId": "UCbRSywya_rl8YS15Lo9ttsA",
                                "pageType": "MUSIC_PAGE_TYPE_ARTIST"
                            }
                        ]
                    },
                    "explicit": false,
                    "title": "Hukum - Thalaivar Alappara (From \"Jailer\")",
                    "aspectRatio": "MUSIC_RESPONSIVE_LIST_ITEM_FLEX_COLUMN_DISPLAY_STYLE_TWO_LINE_STACK",
                    "musicVideoType": "MUSIC_VIDEO_TYPE_ATV",
                    "videoId": "DsjRNPrvq6U",
                    "playlistId": "RDAMVMDsjRNPrvq6U",
                    "thumbnails": [
                        {
                            "url": "https://beatbump.io/i/lh3/ygk5Xlec3rG3BKuzYerG4vGSMdWvFg3-Izm7H3wjZtW1RnJu2cx4dPh6Lo2ZSCy4iGzzolwuR9TTHIQ=w60-h60-l90-rw",
                            "width": 60,
                            "height": 60,
                            "placeholder": "https://beatbump.io/i/lh3/ygk5Xlec3rG3BKuzYerG4vGSMdWvFg3-Izm7H3wjZtW1RnJu2cx4dPh6Lo2ZSCy4iGzzolwuR9TTHIQ=w1-h1-fSoften=50,50,05-l90-rw"
                        },
                        {
                            "url": "https://beatbump.io/i/lh3/ygk5Xlec3rG3BKuzYerG4vGSMdWvFg3-Izm7H3wjZtW1RnJu2cx4dPh6Lo2ZSCy4iGzzolwuR9TTHIQ=w120-h120-l90-rw",
                            "width": 120,
                            "height": 120,
                            "placeholder": "https://beatbump.io/i/lh3/ygk5Xlec3rG3BKuzYerG4vGSMdWvFg3-Izm7H3wjZtW1RnJu2cx4dPh6Lo2ZSCy4iGzzolwuR9TTHIQ=w1-h1-fSoften=50,50,05-l90-rw"
                        }
                    ],
                    "playerParams": "wAEB",
                    "clickTrackingParams": "CLQDEMjeAiITCPPijOnD7oQDFe2I2AUdFDAM0w==",
                    "loggingContext": {
                        "vssLoggingContext": {
                            "serializedContextData": "GhFSREFNVk1Ec2pSTlBydnE2VQ%3D%3D"
                        }
                    }
                },
                {
                    "subtitle": [
                        {
                            "text": "Virat x Music"
                        }
                    ],
                    "artistInfo": {
                        "artist": [
                            {
                                "text": "Virat x Music"
                            }
                        ]
                    },
                    "explicit": false,
                    "title": "Goat (Lo-fii)",
                    "aspectRatio": "MUSIC_RESPONSIVE_LIST_ITEM_FLEX_COLUMN_DISPLAY_STYLE_TWO_LINE_STACK",
                    "musicVideoType": "MUSIC_VIDEO_TYPE_ATV",
                    "videoId": "gRJIR3EWTHY",
                    "playlistId": "RDAMVMgRJIR3EWTHY",
                    "thumbnails": [
                        {
                            "url": "https://beatbump.io/i/lh3/2IudEcXEJyO2Xa9zNhVF9uCNrgFLkubjsa9UdCyVfYDDqkcqj5FbJsyzTrAq9KdAO5-GrmOvAHSMXLo=w60-h60-l90-rw",
                            "width": 60,
                            "height": 60,
                            "placeholder": "https://beatbump.io/i/lh3/2IudEcXEJyO2Xa9zNhVF9uCNrgFLkubjsa9UdCyVfYDDqkcqj5FbJsyzTrAq9KdAO5-GrmOvAHSMXLo=w1-h1-fSoften=50,50,05-l90-rw"
                        },
                        {
                            "url": "https://beatbump.io/i/lh3/2IudEcXEJyO2Xa9zNhVF9uCNrgFLkubjsa9UdCyVfYDDqkcqj5FbJsyzTrAq9KdAO5-GrmOvAHSMXLo=w120-h120-l90-rw",
                            "width": 120,
                            "height": 120,
                            "placeholder": "https://beatbump.io/i/lh3/2IudEcXEJyO2Xa9zNhVF9uCNrgFLkubjsa9UdCyVfYDDqkcqj5FbJsyzTrAq9KdAO5-GrmOvAHSMXLo=w1-h1-fSoften=50,50,05-l90-rw"
                        }
                    ],
                    "playerParams": "wAEB",
                    "clickTrackingParams": "CKEDEMjeAiITCPPijOnD7oQDFe2I2AUdFDAM0w==",
                    "loggingContext": {
                        "vssLoggingContext": {
                            "serializedContextData": "GhFSREFNVk1nUkpJUjNFV1RIWQ%3D%3D"
                        }
                    }
                },
                {
                    "subtitle": [
                        {
                            "text": "Hesham Abdul Wahab",
                            "browseId": "UC0aV0qinwdUmB2NuEhfRS_w",
                            "pageType": "MUSIC_PAGE_TYPE_ARTIST"
                        }
                    ],
                    "artistInfo": {
                        "artist": [
                            {
                                "text": "Hesham Abdul Wahab",
                                "browseId": "UC0aV0qinwdUmB2NuEhfRS_w",
                                "pageType": "MUSIC_PAGE_TYPE_ARTIST"
                            }
                        ]
                    },
                    "explicit": false,
                    "title": "Na Roja Nuvve",
                    "aspectRatio": "MUSIC_RESPONSIVE_LIST_ITEM_FLEX_COLUMN_DISPLAY_STYLE_TWO_LINE_STACK",
                    "musicVideoType": "MUSIC_VIDEO_TYPE_ATV",
                    "videoId": "qodbZBWzHoY",
                    "playlistId": "RDAMVMqodbZBWzHoY",
                    "thumbnails": [
                        {
                            "url": "https://beatbump.io/i/lh3/o2gdd4P20J2jvyx3-unnLlPDux7AXvYRrBnugVwxWh5j1EckKXMnizI7Pcdv1IgZR4gyUfAe5ssQQAs=w60-h60-l90-rw",
                            "width": 60,
                            "height": 60,
                            "placeholder": "https://beatbump.io/i/lh3/o2gdd4P20J2jvyx3-unnLlPDux7AXvYRrBnugVwxWh5j1EckKXMnizI7Pcdv1IgZR4gyUfAe5ssQQAs=w1-h1-fSoften=50,50,05-l90-rw"
                        },
                        {
                            "url": "https://beatbump.io/i/lh3/o2gdd4P20J2jvyx3-unnLlPDux7AXvYRrBnugVwxWh5j1EckKXMnizI7Pcdv1IgZR4gyUfAe5ssQQAs=w120-h120-l90-rw",
                            "width": 120,
                            "height": 120,
                            "placeholder": "https://beatbump.io/i/lh3/o2gdd4P20J2jvyx3-unnLlPDux7AXvYRrBnugVwxWh5j1EckKXMnizI7Pcdv1IgZR4gyUfAe5ssQQAs=w1-h1-fSoften=50,50,05-l90-rw"
                        }
                    ],
                    "playerParams": "wAEB",
                    "clickTrackingParams": "CI8DEMjeAiITCPPijOnD7oQDFe2I2AUdFDAM0w==",
                    "loggingContext": {
                        "vssLoggingContext": {
                            "serializedContextData": "GhFSREFNVk1xb2RiWkJXekhvWQ%3D%3D"
                        }
                    }
                },
                {
                    "subtitle": [
                        {
                            "text": "Jalraj",
                            "browseId": "UC7oN0K4aeVnONn9_QStCaGg",
                            "pageType": "MUSIC_PAGE_TYPE_ARTIST"
                        }
                    ],
                    "artistInfo": {
                        "artist": [
                            {
                                "text": "Jalraj",
                                "browseId": "UC7oN0K4aeVnONn9_QStCaGg",
                                "pageType": "MUSIC_PAGE_TYPE_ARTIST"
                            }
                        ]
                    },
                    "explicit": false,
                    "title": "Zara Zara",
                    "aspectRatio": "MUSIC_RESPONSIVE_LIST_ITEM_FLEX_COLUMN_DISPLAY_STYLE_TWO_LINE_STACK",
                    "musicVideoType": "MUSIC_VIDEO_TYPE_ATV",
                    "videoId": "1XYpqwNTpAM",
                    "playlistId": "RDAMVM1XYpqwNTpAM",
                    "thumbnails": [
                        {
                            "url": "https://beatbump.io/i/lh3/4X_7A4__bov067ri_KPsmk80OYgQfByMf0vBP3Urdy7cMjI0UmwL0o2TTNf4Y0gHLsaWizQeIInPeKla5g=w60-h60-l90-rw",
                            "width": 60,
                            "height": 60,
                            "placeholder": "https://beatbump.io/i/lh3/4X_7A4__bov067ri_KPsmk80OYgQfByMf0vBP3Urdy7cMjI0UmwL0o2TTNf4Y0gHLsaWizQeIInPeKla5g=w1-h1-fSoften=50,50,05-l90-rw"
                        },
                        {
                            "url": "https://beatbump.io/i/lh3/4X_7A4__bov067ri_KPsmk80OYgQfByMf0vBP3Urdy7cMjI0UmwL0o2TTNf4Y0gHLsaWizQeIInPeKla5g=w120-h120-l90-rw",
                            "width": 120,
                            "height": 120,
                            "placeholder": "https://beatbump.io/i/lh3/4X_7A4__bov067ri_KPsmk80OYgQfByMf0vBP3Urdy7cMjI0UmwL0o2TTNf4Y0gHLsaWizQeIInPeKla5g=w1-h1-fSoften=50,50,05-l90-rw"
                        }
                    ],
                    "playerParams": "wAEB",
                    "clickTrackingParams": "CPwCEMjeAiITCPPijOnD7oQDFe2I2AUdFDAM0w==",
                    "loggingContext": {
                        "vssLoggingContext": {
                            "serializedContextData": "GhFSREFNVk0xWFlwcXdOVHBBTQ%3D%3D"
                        }
                    }
                },
                {
                    "subtitle": [
                        {
                            "text": "Atif Aslam",
                            "browseId": "UCVGomUS__PL0c4jDXa0QwXA",
                            "pageType": "MUSIC_PAGE_TYPE_ARTIST"
                        },
                        {
                            "text": " & "
                        },
                        {
                            "text": "Shreya Ghoshal",
                            "browseId": "UCrC-7fsdTCYeaRBpwA6j-Eg",
                            "pageType": "MUSIC_PAGE_TYPE_ARTIST"
                        }
                    ],
                    "artistInfo": {
                        "artist": [
                            {
                                "text": "Atif Aslam",
                                "browseId": "UCVGomUS__PL0c4jDXa0QwXA",
                                "pageType": "MUSIC_PAGE_TYPE_ARTIST"
                            }
                        ]
                    },
                    "explicit": false,
                    "title": "Tere Liye",
                    "aspectRatio": "MUSIC_RESPONSIVE_LIST_ITEM_FLEX_COLUMN_DISPLAY_STYLE_TWO_LINE_STACK",
                    "musicVideoType": "MUSIC_VIDEO_TYPE_ATV",
                    "videoId": "5U5Ru0nTiUM",
                    "playlistId": "RDAMVM5U5Ru0nTiUM",
                    "thumbnails": [
                        {
                            "url": "https://beatbump.io/i/lh3/8rcPUY_axCJpmXE7z1tW3ipwgiVVJBmkH05BZTbzUkQ1zYooRjIb2Zfoqj9_hdQPIp0wuV3NJmMbLVA=w60-h60-l90-rw",
                            "width": 60,
                            "height": 60,
                            "placeholder": "https://beatbump.io/i/lh3/8rcPUY_axCJpmXE7z1tW3ipwgiVVJBmkH05BZTbzUkQ1zYooRjIb2Zfoqj9_hdQPIp0wuV3NJmMbLVA=w1-h1-fSoften=50,50,05-l90-rw"
                        },
                        {
                            "url": "https://beatbump.io/i/lh3/8rcPUY_axCJpmXE7z1tW3ipwgiVVJBmkH05BZTbzUkQ1zYooRjIb2Zfoqj9_hdQPIp0wuV3NJmMbLVA=w120-h120-l90-rw",
                            "width": 120,
                            "height": 120,
                            "placeholder": "https://beatbump.io/i/lh3/8rcPUY_axCJpmXE7z1tW3ipwgiVVJBmkH05BZTbzUkQ1zYooRjIb2Zfoqj9_hdQPIp0wuV3NJmMbLVA=w1-h1-fSoften=50,50,05-l90-rw"
                        }
                    ],
                    "playerParams": "wAEB",
                    "clickTrackingParams": "COkCEMjeAiITCPPijOnD7oQDFe2I2AUdFDAM0w==",
                    "loggingContext": {
                        "vssLoggingContext": {
                            "serializedContextData": "GhFSREFNVk01VTVSdTBuVGlVTQ%3D%3D"
                        }
                    }
                },
                {
                    "subtitle": [
                        {
                            "text": "Udit Narayan",
                            "browseId": "UC13ToEQgfmTe8_GW19LYtCg",
                            "pageType": "MUSIC_PAGE_TYPE_ARTIST"
                        },
                        {
                            "text": ", "
                        },
                        {
                            "text": "Alka Yagnik",
                            "browseId": "UCptBkLZ6XRxoyn8SkUMc_Iw",
                            "pageType": "MUSIC_PAGE_TYPE_ARTIST"
                        },
                        {
                            "text": " & "
                        },
                        {
                            "text": "Chorus",
                            "browseId": "UCV3T1-4IUdg2RNE6CATM7jA",
                            "pageType": "MUSIC_PAGE_TYPE_ARTIST"
                        }
                    ],
                    "artistInfo": {
                        "artist": [
                            {
                                "text": "Udit Narayan",
                                "browseId": "UC13ToEQgfmTe8_GW19LYtCg",
                                "pageType": "MUSIC_PAGE_TYPE_ARTIST"
                            }
                        ]
                    },
                    "explicit": false,
                    "title": "Pyar Ki Kashti Mein",
                    "aspectRatio": "MUSIC_RESPONSIVE_LIST_ITEM_FLEX_COLUMN_DISPLAY_STYLE_TWO_LINE_STACK",
                    "musicVideoType": "MUSIC_VIDEO_TYPE_ATV",
                    "videoId": "OUhrP5XtU_4",
                    "playlistId": "RDAMVMOUhrP5XtU_4",
                    "thumbnails": [
                        {
                            "url": "https://beatbump.io/i/lh3/fV_3xwerL3-_MyP4S3qQs_QYHtW49Co9qD0IJ8UxdtNIyOKa2w2jOSQDxmUQWsi4DFxJV8ZagEl53hzK=w60-h60-l90-rw",
                            "width": 60,
                            "height": 60,
                            "placeholder": "https://beatbump.io/i/lh3/fV_3xwerL3-_MyP4S3qQs_QYHtW49Co9qD0IJ8UxdtNIyOKa2w2jOSQDxmUQWsi4DFxJV8ZagEl53hzK=w1-h1-fSoften=50,50,05-l90-rw"
                        },
                        {
                            "url": "https://beatbump.io/i/lh3/fV_3xwerL3-_MyP4S3qQs_QYHtW49Co9qD0IJ8UxdtNIyOKa2w2jOSQDxmUQWsi4DFxJV8ZagEl53hzK=w120-h120-l90-rw",
                            "width": 120,
                            "height": 120,
                            "placeholder": "https://beatbump.io/i/lh3/fV_3xwerL3-_MyP4S3qQs_QYHtW49Co9qD0IJ8UxdtNIyOKa2w2jOSQDxmUQWsi4DFxJV8ZagEl53hzK=w1-h1-fSoften=50,50,05-l90-rw"
                        }
                    ],
                    "playerParams": "wAEB",
                    "clickTrackingParams": "CNYCEMjeAiITCPPijOnD7oQDFe2I2AUdFDAM0w==",
                    "loggingContext": {
                        "vssLoggingContext": {
                            "serializedContextData": "GhFSREFNVk1PVWhyUDVYdFVfNA%3D%3D"
                        }
                    }
                },
                {
                    "subtitle": [
                        {
                            "text": "Vishal Mishra",
                            "browseId": "UC25UGbOHCuT5Jht2ItRXTqQ",
                            "pageType": "MUSIC_PAGE_TYPE_ARTIST"
                        }
                    ],
                    "artistInfo": {
                        "artist": [
                            {
                                "text": "Vishal Mishra",
                                "browseId": "UC25UGbOHCuT5Jht2ItRXTqQ",
                                "pageType": "MUSIC_PAGE_TYPE_ARTIST"
                            }
                        ]
                    },
                    "explicit": false,
                    "title": "Pehle Bhi Main",
                    "aspectRatio": "MUSIC_RESPONSIVE_LIST_ITEM_FLEX_COLUMN_DISPLAY_STYLE_TWO_LINE_STACK",
                    "musicVideoType": "MUSIC_VIDEO_TYPE_ATV",
                    "videoId": "9cHq63r1vHQ",
                    "playlistId": "RDAMVM9cHq63r1vHQ",
                    "thumbnails": [
                        {
                            "url": "https://beatbump.io/i/lh3/02xLoCOZmap3ihA_v28cqFz1zBcE9cMzfwzJHzsgwxyGklT0rRWkfUqztPCgAx7CdBtVM5MahamnGuJw=w60-h60-l90-rw",
                            "width": 60,
                            "height": 60,
                            "placeholder": "https://beatbump.io/i/lh3/02xLoCOZmap3ihA_v28cqFz1zBcE9cMzfwzJHzsgwxyGklT0rRWkfUqztPCgAx7CdBtVM5MahamnGuJw=w1-h1-fSoften=50,50,05-l90-rw"
                        },
                        {
                            "url": "https://beatbump.io/i/lh3/02xLoCOZmap3ihA_v28cqFz1zBcE9cMzfwzJHzsgwxyGklT0rRWkfUqztPCgAx7CdBtVM5MahamnGuJw=w120-h120-l90-rw",
                            "width": 120,
                            "height": 120,
                            "placeholder": "https://beatbump.io/i/lh3/02xLoCOZmap3ihA_v28cqFz1zBcE9cMzfwzJHzsgwxyGklT0rRWkfUqztPCgAx7CdBtVM5MahamnGuJw=w1-h1-fSoften=50,50,05-l90-rw"
                        }
                    ],
                    "playerParams": "wAEB",
                    "clickTrackingParams": "CMMCEMjeAiITCPPijOnD7oQDFe2I2AUdFDAM0w==",
                    "loggingContext": {
                        "vssLoggingContext": {
                            "serializedContextData": "GhFSREFNVk05Y0hxNjNyMXZIUQ%3D%3D"
                        }
                    }
                },
                {
                    "subtitle": [
                        {
                            "text": "Sam C.S.",
                            "browseId": "UCV7Zks7Oz8EEyufqgLJHU7A",
                            "pageType": "MUSIC_PAGE_TYPE_ARTIST"
                        },
                        {
                            "text": " & "
                        },
                        {
                            "text": "Kapil Kapilan",
                            "browseId": "UCz3RwFsjd06ySqpQsHehIkA",
                            "pageType": "MUSIC_PAGE_TYPE_ARTIST"
                        }
                    ],
                    "artistInfo": {
                        "artist": [
                            {
                                "text": "Sam C.S.",
                                "browseId": "UCV7Zks7Oz8EEyufqgLJHU7A",
                                "pageType": "MUSIC_PAGE_TYPE_ARTIST"
                            }
                        ]
                    },
                    "explicit": false,
                    "title": "Neela Nilave (From \"RDX\")",
                    "aspectRatio": "MUSIC_RESPONSIVE_LIST_ITEM_FLEX_COLUMN_DISPLAY_STYLE_TWO_LINE_STACK",
                    "musicVideoType": "MUSIC_VIDEO_TYPE_ATV",
                    "videoId": "3GyOnsGDeqY",
                    "playlistId": "RDAMVM3GyOnsGDeqY",
                    "thumbnails": [
                        {
                            "url": "https://beatbump.io/i/lh3/STPBRXbmJUHl99CjBWmQ5Sthml5G4wFmAvG8VTlFq_YPzS2m_C99HNwWY9A8a0GQ88EFdVl02uP3hBLuuQ=w60-h60-l90-rw",
                            "width": 60,
                            "height": 60,
                            "placeholder": "https://beatbump.io/i/lh3/STPBRXbmJUHl99CjBWmQ5Sthml5G4wFmAvG8VTlFq_YPzS2m_C99HNwWY9A8a0GQ88EFdVl02uP3hBLuuQ=w1-h1-fSoften=50,50,05-l90-rw"
                        },
                        {
                            "url": "https://beatbump.io/i/lh3/STPBRXbmJUHl99CjBWmQ5Sthml5G4wFmAvG8VTlFq_YPzS2m_C99HNwWY9A8a0GQ88EFdVl02uP3hBLuuQ=w120-h120-l90-rw",
                            "width": 120,
                            "height": 120,
                            "placeholder": "https://beatbump.io/i/lh3/STPBRXbmJUHl99CjBWmQ5Sthml5G4wFmAvG8VTlFq_YPzS2m_C99HNwWY9A8a0GQ88EFdVl02uP3hBLuuQ=w1-h1-fSoften=50,50,05-l90-rw"
                        }
                    ],
                    "playerParams": "wAEB",
                    "clickTrackingParams": "CLACEMjeAiITCPPijOnD7oQDFe2I2AUdFDAM0w==",
                    "loggingContext": {
                        "vssLoggingContext": {
                            "serializedContextData": "GhFSREFNVk0zR3lPbnNHRGVxWQ%3D%3D"
                        }
                    }
                },
                {
                    "subtitle": [
                        {
                            "text": "Shubh",
                            "browseId": "UCDoxhZGShhNvN4Bc3nWZptg",
                            "pageType": "MUSIC_PAGE_TYPE_ARTIST"
                        }
                    ],
                    "artistInfo": {
                        "artist": [
                            {
                                "text": "Shubh",
                                "browseId": "UCDoxhZGShhNvN4Bc3nWZptg",
                                "pageType": "MUSIC_PAGE_TYPE_ARTIST"
                            }
                        ]
                    },
                    "explicit": false,
                    "title": "King Shit",
                    "aspectRatio": "MUSIC_RESPONSIVE_LIST_ITEM_FLEX_COLUMN_DISPLAY_STYLE_TWO_LINE_STACK",
                    "musicVideoType": "MUSIC_VIDEO_TYPE_ATV",
                    "videoId": "1usErKKsNGM",
                    "playlistId": "RDAMVM1usErKKsNGM",
                    "thumbnails": [
                        {
                            "url": "https://beatbump.io/i/lh3/5sAOVCBCsvjDwhvdr_AakxsrmLi28MOqvkPI_K39v6jkHIGGI_3yZcAHlauA0PrPx5Te8uEX98zAnyPf=w60-h60-l90-rw",
                            "width": 60,
                            "height": 60,
                            "placeholder": "https://beatbump.io/i/lh3/5sAOVCBCsvjDwhvdr_AakxsrmLi28MOqvkPI_K39v6jkHIGGI_3yZcAHlauA0PrPx5Te8uEX98zAnyPf=w1-h1-fSoften=50,50,05-l90-rw"
                        },
                        {
                            "url": "https://beatbump.io/i/lh3/5sAOVCBCsvjDwhvdr_AakxsrmLi28MOqvkPI_K39v6jkHIGGI_3yZcAHlauA0PrPx5Te8uEX98zAnyPf=w120-h120-l90-rw",
                            "width": 120,
                            "height": 120,
                            "placeholder": "https://beatbump.io/i/lh3/5sAOVCBCsvjDwhvdr_AakxsrmLi28MOqvkPI_K39v6jkHIGGI_3yZcAHlauA0PrPx5Te8uEX98zAnyPf=w1-h1-fSoften=50,50,05-l90-rw"
                        }
                    ],
                    "playerParams": "wAEB",
                    "clickTrackingParams": "CJ0CEMjeAiITCPPijOnD7oQDFe2I2AUdFDAM0w==",
                    "loggingContext": {
                        "vssLoggingContext": {
                            "serializedContextData": "GhFSREFNVk0xdXNFcktLc05HTQ%3D%3D"
                        }
                    }
                },
                {
                    "subtitle": [
                        {
                            "text": "Neeraj Shreedhar, Kavita Seth, & Pritam"
                        }
                    ],
                    "artistInfo": {
                        "artist": [
                            {
                                "text": "Neeraj Shreedhar, Kavita Seth, & Pritam"
                            }
                        ]
                    },
                    "explicit": false,
                    "title": "Tum Hi Ho Bandhu",
                    "aspectRatio": "MUSIC_RESPONSIVE_LIST_ITEM_FLEX_COLUMN_DISPLAY_STYLE_TWO_LINE_STACK",
                    "musicVideoType": "MUSIC_VIDEO_TYPE_ATV",
                    "videoId": "_iqHUSQ6eng",
                    "playlistId": "RDAMVM_iqHUSQ6eng",
                    "thumbnails": [
                        {
                            "url": "https://beatbump.io/i/lh3/giv7PGzkpRRd4tgeFP9MNHpLubA7mQ_cnDNcI3e3tuwlZXQnel00ny9pX4_WX_YYM_F3bNLgOcXE0Vun=w60-h60-l90-rw",
                            "width": 60,
                            "height": 60,
                            "placeholder": "https://beatbump.io/i/lh3/giv7PGzkpRRd4tgeFP9MNHpLubA7mQ_cnDNcI3e3tuwlZXQnel00ny9pX4_WX_YYM_F3bNLgOcXE0Vun=w1-h1-fSoften=50,50,05-l90-rw"
                        },
                        {
                            "url": "https://beatbump.io/i/lh3/giv7PGzkpRRd4tgeFP9MNHpLubA7mQ_cnDNcI3e3tuwlZXQnel00ny9pX4_WX_YYM_F3bNLgOcXE0Vun=w120-h120-l90-rw",
                            "width": 120,
                            "height": 120,
                            "placeholder": "https://beatbump.io/i/lh3/giv7PGzkpRRd4tgeFP9MNHpLubA7mQ_cnDNcI3e3tuwlZXQnel00ny9pX4_WX_YYM_F3bNLgOcXE0Vun=w1-h1-fSoften=50,50,05-l90-rw"
                        }
                    ],
                    "playerParams": "wAEB",
                    "clickTrackingParams": "CIoCEMjeAiITCPPijOnD7oQDFe2I2AUdFDAM0w==",
                    "loggingContext": {
                        "vssLoggingContext": {
                            "serializedContextData": "GhFSREFNVk1faXFIVVNRNmVuZw%3D%3D"
                        }
                    }
                },
                {
                    "subtitle": [
                        {
                            "text": "PALAK MUCHHAL",
                            "browseId": "UCE2Nm1Ep8Dz4vwnOc6xXqBQ",
                            "pageType": "MUSIC_PAGE_TYPE_ARTIST"
                        },
                        {
                            "text": " & "
                        },
                        {
                            "text": "AMAAL MALLIK",
                            "browseId": "UCnSPyVAlKXkdkXzqHf-J93g",
                            "pageType": "MUSIC_PAGE_TYPE_ARTIST"
                        }
                    ],
                    "artistInfo": {
                        "artist": [
                            {
                                "text": "PALAK MUCHHAL",
                                "browseId": "UCE2Nm1Ep8Dz4vwnOc6xXqBQ",
                                "pageType": "MUSIC_PAGE_TYPE_ARTIST"
                            }
                        ]
                    },
                    "explicit": false,
                    "title": "KAUN TUJHE",
                    "aspectRatio": "MUSIC_RESPONSIVE_LIST_ITEM_FLEX_COLUMN_DISPLAY_STYLE_TWO_LINE_STACK",
                    "musicVideoType": "MUSIC_VIDEO_TYPE_ATV",
                    "videoId": "ZVyA_8rd1Ko",
                    "playlistId": "RDAMVMZVyA_8rd1Ko",
                    "thumbnails": [
                        {
                            "url": "https://beatbump.io/i/lh3/JFOH8kF-mXwFHZc-wPTqnX3aM2bRtpGMpOr2VByhQim4PrsIawLcHi-SYuBKjZy4a2Ef_nGTAlgDJw4T=w60-h60-l90-rw",
                            "width": 60,
                            "height": 60,
                            "placeholder": "https://beatbump.io/i/lh3/JFOH8kF-mXwFHZc-wPTqnX3aM2bRtpGMpOr2VByhQim4PrsIawLcHi-SYuBKjZy4a2Ef_nGTAlgDJw4T=w1-h1-fSoften=50,50,05-l90-rw"
                        },
                        {
                            "url": "https://beatbump.io/i/lh3/JFOH8kF-mXwFHZc-wPTqnX3aM2bRtpGMpOr2VByhQim4PrsIawLcHi-SYuBKjZy4a2Ef_nGTAlgDJw4T=w120-h120-l90-rw",
                            "width": 120,
                            "height": 120,
                            "placeholder": "https://beatbump.io/i/lh3/JFOH8kF-mXwFHZc-wPTqnX3aM2bRtpGMpOr2VByhQim4PrsIawLcHi-SYuBKjZy4a2Ef_nGTAlgDJw4T=w1-h1-fSoften=50,50,05-l90-rw"
                        }
                    ],
                    "playerParams": "wAEB",
                    "clickTrackingParams": "CPcBEMjeAiITCPPijOnD7oQDFe2I2AUdFDAM0w==",
                    "loggingContext": {
                        "vssLoggingContext": {
                            "serializedContextData": "GhFSREFNVk1aVnlBXzhyZDFLbw%3D%3D"
                        }
                    }
                },
                {
                    "subtitle": [
                        {
                            "text": "Sachet Tandon",
                            "browseId": "UCwVaZvqWinr1NWZopxGjRQQ",
                            "pageType": "MUSIC_PAGE_TYPE_ARTIST"
                        },
                        {
                            "text": " & "
                        },
                        {
                            "text": "Parampara Tandon",
                            "browseId": "UC0-Jqd8gRqa5RkQGmfJUFTg",
                            "pageType": "MUSIC_PAGE_TYPE_ARTIST"
                        }
                    ],
                    "artistInfo": {
                        "artist": [
                            {
                                "text": "Sachet Tandon",
                                "browseId": "UCwVaZvqWinr1NWZopxGjRQQ",
                                "pageType": "MUSIC_PAGE_TYPE_ARTIST"
                            }
                        ]
                    },
                    "explicit": false,
                    "title": "Malang Sajna",
                    "aspectRatio": "MUSIC_RESPONSIVE_LIST_ITEM_FLEX_COLUMN_DISPLAY_STYLE_TWO_LINE_STACK",
                    "musicVideoType": "MUSIC_VIDEO_TYPE_ATV",
                    "videoId": "BA37wV6e7IE",
                    "playlistId": "RDAMVMBA37wV6e7IE",
                    "thumbnails": [
                        {
                            "url": "https://beatbump.io/i/lh3/NR71AAF80jtRtnwdFtzMmZDErAmPN4s2LghhLQezUHJCVy94893TSP6zU1A9IUBbB2kcPnQIXsk8-2M=w60-h60-l90-rw",
                            "width": 60,
                            "height": 60,
                            "placeholder": "https://beatbump.io/i/lh3/NR71AAF80jtRtnwdFtzMmZDErAmPN4s2LghhLQezUHJCVy94893TSP6zU1A9IUBbB2kcPnQIXsk8-2M=w1-h1-fSoften=50,50,05-l90-rw"
                        },
                        {
                            "url": "https://beatbump.io/i/lh3/NR71AAF80jtRtnwdFtzMmZDErAmPN4s2LghhLQezUHJCVy94893TSP6zU1A9IUBbB2kcPnQIXsk8-2M=w120-h120-l90-rw",
                            "width": 120,
                            "height": 120,
                            "placeholder": "https://beatbump.io/i/lh3/NR71AAF80jtRtnwdFtzMmZDErAmPN4s2LghhLQezUHJCVy94893TSP6zU1A9IUBbB2kcPnQIXsk8-2M=w1-h1-fSoften=50,50,05-l90-rw"
                        }
                    ],
                    "playerParams": "wAEB",
                    "clickTrackingParams": "COQBEMjeAiITCPPijOnD7oQDFe2I2AUdFDAM0w==",
                    "loggingContext": {
                        "vssLoggingContext": {
                            "serializedContextData": "GhFSREFNVk1CQTM3d1Y2ZTdJRQ%3D%3D"
                        }
                    }
                },
                {
                    "subtitle": [
                        {
                            "text": "Varun Jain, Raghav Chaitanya, & Sachin-Jigar"
                        }
                    ],
                    "artistInfo": {
                        "artist": [
                            {
                                "text": "Varun Jain, Raghav Chaitanya, & Sachin-Jigar"
                            }
                        ]
                    },
                    "explicit": false,
                    "title": "Tum Se",
                    "aspectRatio": "MUSIC_RESPONSIVE_LIST_ITEM_FLEX_COLUMN_DISPLAY_STYLE_TWO_LINE_STACK",
                    "musicVideoType": "MUSIC_VIDEO_TYPE_ATV",
                    "videoId": "mmkaDi06C2w",
                    "playlistId": "RDAMVMmmkaDi06C2w",
                    "thumbnails": [
                        {
                            "url": "https://beatbump.io/i/lh3/FMv7FYqkppHAM9Sn43aneV3eql6nCHldW0OO4ZvoimckHHKwM4Io8NWCdLjarWnh-ecC_LrdpYs3PJ_v=w60-h60-l90-rw",
                            "width": 60,
                            "height": 60,
                            "placeholder": "https://beatbump.io/i/lh3/FMv7FYqkppHAM9Sn43aneV3eql6nCHldW0OO4ZvoimckHHKwM4Io8NWCdLjarWnh-ecC_LrdpYs3PJ_v=w1-h1-fSoften=50,50,05-l90-rw"
                        },
                        {
                            "url": "https://beatbump.io/i/lh3/FMv7FYqkppHAM9Sn43aneV3eql6nCHldW0OO4ZvoimckHHKwM4Io8NWCdLjarWnh-ecC_LrdpYs3PJ_v=w120-h120-l90-rw",
                            "width": 120,
                            "height": 120,
                            "placeholder": "https://beatbump.io/i/lh3/FMv7FYqkppHAM9Sn43aneV3eql6nCHldW0OO4ZvoimckHHKwM4Io8NWCdLjarWnh-ecC_LrdpYs3PJ_v=w1-h1-fSoften=50,50,05-l90-rw"
                        }
                    ],
                    "playerParams": "wAEB",
                    "clickTrackingParams": "CNEBEMjeAiITCPPijOnD7oQDFe2I2AUdFDAM0w==",
                    "loggingContext": {
                        "vssLoggingContext": {
                            "serializedContextData": "GhFSREFNVk1tbWthRGkwNkMydw%3D%3D"
                        }
                    }
                },
                {
                    "subtitle": [
                        {
                            "text": "Prathima Rao,Gurukiran,Upendra",
                            "browseId": "UCBf-8YZhyMNnkfnHHZ2Em7g",
                            "pageType": "MUSIC_PAGE_TYPE_ARTIST"
                        }
                    ],
                    "artistInfo": {
                        "artist": [
                            {
                                "text": "Prathima Rao,Gurukiran,Upendra",
                                "browseId": "UCBf-8YZhyMNnkfnHHZ2Em7g",
                                "pageType": "MUSIC_PAGE_TYPE_ARTIST"
                            }
                        ]
                    },
                    "explicit": false,
                    "title": "Enilla Enilla ft. Upendra, Prema, Raveena Tandan,Dhamini (feat. Upendra, Prema, Raveena Tandan & Dhamini)",
                    "aspectRatio": "MUSIC_RESPONSIVE_LIST_ITEM_FLEX_COLUMN_DISPLAY_STYLE_TWO_LINE_STACK",
                    "musicVideoType": "MUSIC_VIDEO_TYPE_ATV",
                    "videoId": "yl3kshrE3-A",
                    "playlistId": "RDAMVMyl3kshrE3-A",
                    "thumbnails": [
                        {
                            "url": "https://beatbump.io/i/lh3/LIVHAPoNUVGTJPnJYdMPNfmEXXmfZcVgbnoXfmadbARKO-TExmAzsDc7RWbNjstg2sZj-oGQh-nR_dI=w60-h60-l90-rw",
                            "width": 60,
                            "height": 60,
                            "placeholder": "https://beatbump.io/i/lh3/LIVHAPoNUVGTJPnJYdMPNfmEXXmfZcVgbnoXfmadbARKO-TExmAzsDc7RWbNjstg2sZj-oGQh-nR_dI=w1-h1-fSoften=50,50,05-l90-rw"
                        },
                        {
                            "url": "https://beatbump.io/i/lh3/LIVHAPoNUVGTJPnJYdMPNfmEXXmfZcVgbnoXfmadbARKO-TExmAzsDc7RWbNjstg2sZj-oGQh-nR_dI=w120-h120-l90-rw",
                            "width": 120,
                            "height": 120,
                            "placeholder": "https://beatbump.io/i/lh3/LIVHAPoNUVGTJPnJYdMPNfmEXXmfZcVgbnoXfmadbARKO-TExmAzsDc7RWbNjstg2sZj-oGQh-nR_dI=w1-h1-fSoften=50,50,05-l90-rw"
                        }
                    ],
                    "playerParams": "wAEB",
                    "clickTrackingParams": "CL4BEMjeAiITCPPijOnD7oQDFe2I2AUdFDAM0w==",
                    "loggingContext": {
                        "vssLoggingContext": {
                            "serializedContextData": "GhFSREFNVk15bDNrc2hyRTMtQQ%3D%3D"
                        }
                    }
                }
            ],
            "type": "carousel"
        },
        {
            "header": {
                "title": "Divine Tunes",
                "subheading": "START YOUR DAY ON A POSITIVE NOTE"
            },
            "items": [
                {
                    "title": "Om Namah Shivaya",
                    "thumbnails": [
                        {
                            "url": "https://beatbump.io/i/lh3/Y_Os4lj8wQIGYk16PbWuRXr0tfNaTVLflaHKh_dMH8JLNFYuWSoSFBLE4MuJ2glUHlAbFEUP9a-IiWc=w226-h226-l90-rw",
                            "width": 226,
                            "height": 226,
                            "placeholder": "https://beatbump.io/i/lh3/Y_Os4lj8wQIGYk16PbWuRXr0tfNaTVLflaHKh_dMH8JLNFYuWSoSFBLE4MuJ2glUHlAbFEUP9a-IiWc=w1-h1-fSoften=50,50,05-l90-rw"
                        },
                        {
                            "url": "https://beatbump.io/i/lh3/Y_Os4lj8wQIGYk16PbWuRXr0tfNaTVLflaHKh_dMH8JLNFYuWSoSFBLE4MuJ2glUHlAbFEUP9a-IiWc=w544-h544-l90-rw",
                            "width": 544,
                            "height": 544,
                            "placeholder": "https://beatbump.io/i/lh3/Y_Os4lj8wQIGYk16PbWuRXr0tfNaTVLflaHKh_dMH8JLNFYuWSoSFBLE4MuJ2glUHlAbFEUP9a-IiWc=w1-h1-fSoften=50,50,05-l90-rw"
                        }
                    ],
                    "aspectRatio": "MUSIC_TWO_ROW_ITEM_THUMBNAIL_ASPECT_RATIO_SQUARE",
                    "playlistId": "RDCLAK5uy_n6_pc7SPVqtuPg_cK3AUxh9AbQP-_Qh-w",
                    "endpoint": {
                        "browseId": "VLRDCLAK5uy_n6_pc7SPVqtuPg_cK3AUxh9AbQP-_Qh-w",
                        "pageType": "MUSIC_PAGE_TYPE_PLAYLIST"
                    },
                    "subtitle": [
                        {
                            "text": "Suresh Wadkar, Hansraj Raghuwanshi, Sundeep Gosswami, Kailash Kher"
                        }
                    ]
                },
                {
                    "title": "Jai Shri Ganapathi",
                    "thumbnails": [
                        {
                            "url": "https://beatbump.io/i/lh3/2UVVBDCX3VPzNtHwZspyARz7ijtPh7zoiGDH8urb6gmt6U6MhQNZqjwS3BfUDybPCXy1UaAzyJOYYjo=w226-h226-l90-rw",
                            "width": 226,
                            "height": 226,
                            "placeholder": "https://beatbump.io/i/lh3/2UVVBDCX3VPzNtHwZspyARz7ijtPh7zoiGDH8urb6gmt6U6MhQNZqjwS3BfUDybPCXy1UaAzyJOYYjo=w1-h1-fSoften=50,50,05-l90-rw"
                        },
                        {
                            "url": "https://beatbump.io/i/lh3/2UVVBDCX3VPzNtHwZspyARz7ijtPh7zoiGDH8urb6gmt6U6MhQNZqjwS3BfUDybPCXy1UaAzyJOYYjo=w544-h544-l90-rw",
                            "width": 544,
                            "height": 544,
                            "placeholder": "https://beatbump.io/i/lh3/2UVVBDCX3VPzNtHwZspyARz7ijtPh7zoiGDH8urb6gmt6U6MhQNZqjwS3BfUDybPCXy1UaAzyJOYYjo=w1-h1-fSoften=50,50,05-l90-rw"
                        }
                    ],
                    "aspectRatio": "MUSIC_TWO_ROW_ITEM_THUMBNAIL_ASPECT_RATIO_SQUARE",
                    "playlistId": "RDCLAK5uy_kutsSkGoKzFdPPqVdU05ER46rh6rtzLAs",
                    "endpoint": {
                        "browseId": "VLRDCLAK5uy_kutsSkGoKzFdPPqVdU05ER46rh6rtzLAs",
                        "pageType": "MUSIC_PAGE_TYPE_PLAYLIST"
                    },
                    "subtitle": [
                        {
                            "text": "R. Prasanna, M. M. Srilekha, S. P. Balasubrahmanyam, Parupalli Sri Ranganath"
                        }
                    ]
                },
                {
                    "title": "Om Namo Namah Shivaya",
                    "thumbnails": [
                        {
                            "url": "https://beatbump.io/i/lh3/woFD1R9SwL2zH6uFM_Hd86ms0qcv_hQwhYLC_32lkt49z1LPY4KahFiL7d3wiTRB0-PKw3QWP3F-_g=w226-h226-l90-rw",
                            "width": 226,
                            "height": 226,
                            "placeholder": "https://beatbump.io/i/lh3/woFD1R9SwL2zH6uFM_Hd86ms0qcv_hQwhYLC_32lkt49z1LPY4KahFiL7d3wiTRB0-PKw3QWP3F-_g=w1-h1-fSoften=50,50,05-l90-rw"
                        },
                        {
                            "url": "https://beatbump.io/i/lh3/woFD1R9SwL2zH6uFM_Hd86ms0qcv_hQwhYLC_32lkt49z1LPY4KahFiL7d3wiTRB0-PKw3QWP3F-_g=w544-h544-l90-rw",
                            "width": 544,
                            "height": 544,
                            "placeholder": "https://beatbump.io/i/lh3/woFD1R9SwL2zH6uFM_Hd86ms0qcv_hQwhYLC_32lkt49z1LPY4KahFiL7d3wiTRB0-PKw3QWP3F-_g=w1-h1-fSoften=50,50,05-l90-rw"
                        }
                    ],
                    "aspectRatio": "MUSIC_TWO_ROW_ITEM_THUMBNAIL_ASPECT_RATIO_SQUARE",
                    "playlistId": "RDCLAK5uy_lf2TonAaIXTaOa-b13x8XZ8-IWx2Xpkrs",
                    "endpoint": {
                        "browseId": "VLRDCLAK5uy_lf2TonAaIXTaOa-b13x8XZ8-IWx2Xpkrs",
                        "pageType": "MUSIC_PAGE_TYPE_PLAYLIST"
                    },
                    "subtitle": [
                        {
                            "text": "S. P. Balasubrahmanyam, Ramu, Jayasree"
                        }
                    ]
                },
                {
                    "title": "Om Namo Venkatesaya Namaha",
                    "thumbnails": [
                        {
                            "url": "https://beatbump.io/i/lh3/ZtuYpGxpe7bv8c_ssYVPxiq0L6uRn85OcUL63fp4FGWLFS_xNvBd8zJyHBO6lJFH3LFE209UzhI8JjG-=w226-h226-l90-rw",
                            "width": 226,
                            "height": 226,
                            "placeholder": "https://beatbump.io/i/lh3/ZtuYpGxpe7bv8c_ssYVPxiq0L6uRn85OcUL63fp4FGWLFS_xNvBd8zJyHBO6lJFH3LFE209UzhI8JjG-=w1-h1-fSoften=50,50,05-l90-rw"
                        },
                        {
                            "url": "https://beatbump.io/i/lh3/ZtuYpGxpe7bv8c_ssYVPxiq0L6uRn85OcUL63fp4FGWLFS_xNvBd8zJyHBO6lJFH3LFE209UzhI8JjG-=w544-h544-l90-rw",
                            "width": 544,
                            "height": 544,
                            "placeholder": "https://beatbump.io/i/lh3/ZtuYpGxpe7bv8c_ssYVPxiq0L6uRn85OcUL63fp4FGWLFS_xNvBd8zJyHBO6lJFH3LFE209UzhI8JjG-=w1-h1-fSoften=50,50,05-l90-rw"
                        }
                    ],
                    "aspectRatio": "MUSIC_TWO_ROW_ITEM_THUMBNAIL_ASPECT_RATIO_SQUARE",
                    "playlistId": "RDCLAK5uy_l-SbHPUnHnxynilobKDLDcUJD2HADzFpk",
                    "endpoint": {
                        "browseId": "VLRDCLAK5uy_l-SbHPUnHnxynilobKDLDcUJD2HADzFpk",
                        "pageType": "MUSIC_PAGE_TYPE_PLAYLIST"
                    },
                    "subtitle": [
                        {
                            "text": "Parupalli Sri Ranganath, S. P. Balasubrahmanyam, Annamayya Keerthana, Vijayalakshmi Sarma"
                        }
                    ]
                },
                {
                    "title": "Jay Deva Ganesha",
                    "thumbnails": [
                        {
                            "url": "https://beatbump.io/i/lh3/Rg9RxO3I_iEKEB-SA3e69LjebgYTBK5ICzoFM4vEWFo0DbKBKtIdinI9DcN5wHWNzOYQZ_CqG9KQSw=w226-h226-l90-rw",
                            "width": 226,
                            "height": 226,
                            "placeholder": "https://beatbump.io/i/lh3/Rg9RxO3I_iEKEB-SA3e69LjebgYTBK5ICzoFM4vEWFo0DbKBKtIdinI9DcN5wHWNzOYQZ_CqG9KQSw=w1-h1-fSoften=50,50,05-l90-rw"
                        },
                        {
                            "url": "https://beatbump.io/i/lh3/Rg9RxO3I_iEKEB-SA3e69LjebgYTBK5ICzoFM4vEWFo0DbKBKtIdinI9DcN5wHWNzOYQZ_CqG9KQSw=w544-h544-l90-rw",
                            "width": 544,
                            "height": 544,
                            "placeholder": "https://beatbump.io/i/lh3/Rg9RxO3I_iEKEB-SA3e69LjebgYTBK5ICzoFM4vEWFo0DbKBKtIdinI9DcN5wHWNzOYQZ_CqG9KQSw=w1-h1-fSoften=50,50,05-l90-rw"
                        }
                    ],
                    "aspectRatio": "MUSIC_TWO_ROW_ITEM_THUMBNAIL_ASPECT_RATIO_SQUARE",
                    "playlistId": "RDCLAK5uy_ls2UVZP-l4D7y4sbfAGhKY3lDx1C2MCMk",
                    "endpoint": {
                        "browseId": "VLRDCLAK5uy_ls2UVZP-l4D7y4sbfAGhKY3lDx1C2MCMk",
                        "pageType": "MUSIC_PAGE_TYPE_PLAYLIST"
                    },
                    "subtitle": [
                        {
                            "text": "Suresh Wadkar, Amjad Nadeem, Sadhana Sargam, Shankar Mahadevan"
                        }
                    ]
                },
                {
                    "title": "Om Namah Shivaya - Tamil",
                    "thumbnails": [
                        {
                            "url": "https://beatbump.io/i/lh3/EnTG-kYMBpiX9b8whdJg9xhmRMEOhuXpdu-yGitOn3cYJe1bqgn02jLy-60DRFVaE_uvwLSOLiPHXUM=w226-h226-l90-rw",
                            "width": 226,
                            "height": 226,
                            "placeholder": "https://beatbump.io/i/lh3/EnTG-kYMBpiX9b8whdJg9xhmRMEOhuXpdu-yGitOn3cYJe1bqgn02jLy-60DRFVaE_uvwLSOLiPHXUM=w1-h1-fSoften=50,50,05-l90-rw"
                        },
                        {
                            "url": "https://beatbump.io/i/lh3/EnTG-kYMBpiX9b8whdJg9xhmRMEOhuXpdu-yGitOn3cYJe1bqgn02jLy-60DRFVaE_uvwLSOLiPHXUM=w544-h544-l90-rw",
                            "width": 544,
                            "height": 544,
                            "placeholder": "https://beatbump.io/i/lh3/EnTG-kYMBpiX9b8whdJg9xhmRMEOhuXpdu-yGitOn3cYJe1bqgn02jLy-60DRFVaE_uvwLSOLiPHXUM=w1-h1-fSoften=50,50,05-l90-rw"
                        }
                    ],
                    "aspectRatio": "MUSIC_TWO_ROW_ITEM_THUMBNAIL_ASPECT_RATIO_SQUARE",
                    "playlistId": "RDCLAK5uy_kGruJ0AevR1js3_fm-UB5GyUVf68LjID0",
                    "endpoint": {
                        "browseId": "VLRDCLAK5uy_kGruJ0AevR1js3_fm-UB5GyUVf68LjID0",
                        "pageType": "MUSIC_PAGE_TYPE_PLAYLIST"
                    },
                    "subtitle": [
                        {
                            "text": "S. P. Balasubrahmanyam, Mahanadhi Shobana, Veeramanidasan, R Krishnaraj"
                        }
                    ]
                },
                {
                    "title": "Jai Shree Ganesh",
                    "thumbnails": [
                        {
                            "url": "https://beatbump.io/i/lh3/8fQ-5J_8S_xOhSbtVVrOMD4dfJd0mWTxpfGFXaUdH3WZG0kTxhsIPKi919WS0lFQedC2RTWKclTyQNpA=w226-h226-l90-rw",
                            "width": 226,
                            "height": 226,
                            "placeholder": "https://beatbump.io/i/lh3/8fQ-5J_8S_xOhSbtVVrOMD4dfJd0mWTxpfGFXaUdH3WZG0kTxhsIPKi919WS0lFQedC2RTWKclTyQNpA=w1-h1-fSoften=50,50,05-l90-rw"
                        },
                        {
                            "url": "https://beatbump.io/i/lh3/8fQ-5J_8S_xOhSbtVVrOMD4dfJd0mWTxpfGFXaUdH3WZG0kTxhsIPKi919WS0lFQedC2RTWKclTyQNpA=w544-h544-l90-rw",
                            "width": 544,
                            "height": 544,
                            "placeholder": "https://beatbump.io/i/lh3/8fQ-5J_8S_xOhSbtVVrOMD4dfJd0mWTxpfGFXaUdH3WZG0kTxhsIPKi919WS0lFQedC2RTWKclTyQNpA=w1-h1-fSoften=50,50,05-l90-rw"
                        }
                    ],
                    "aspectRatio": "MUSIC_TWO_ROW_ITEM_THUMBNAIL_ASPECT_RATIO_SQUARE",
                    "playlistId": "RDCLAK5uy_kFbIvQ3qTHwYlgY_Avre9MtDXk2Jw6pKA",
                    "endpoint": {
                        "browseId": "VLRDCLAK5uy_kFbIvQ3qTHwYlgY_Avre9MtDXk2Jw6pKA",
                        "pageType": "MUSIC_PAGE_TYPE_PLAYLIST"
                    },
                    "subtitle": [
                        {
                            "text": "Shankar Mahadevan, Suresh Wadkar, Lata Mangeshkar, Various Artists"
                        }
                    ]
                },
                {
                    "title": "Jai Mata Di",
                    "thumbnails": [
                        {
                            "url": "https://beatbump.io/i/lh3/A3VgIALmQi6i8bo-BXtCnzMVaQ2Kc-8V08vbI3nilN0jORPOetO61ekY7nlXZAbkRKLG7Pk26Lp5Vyk=w226-h226-l90-rw",
                            "width": 226,
                            "height": 226,
                            "placeholder": "https://beatbump.io/i/lh3/A3VgIALmQi6i8bo-BXtCnzMVaQ2Kc-8V08vbI3nilN0jORPOetO61ekY7nlXZAbkRKLG7Pk26Lp5Vyk=w1-h1-fSoften=50,50,05-l90-rw"
                        },
                        {
                            "url": "https://beatbump.io/i/lh3/A3VgIALmQi6i8bo-BXtCnzMVaQ2Kc-8V08vbI3nilN0jORPOetO61ekY7nlXZAbkRKLG7Pk26Lp5Vyk=w544-h544-l90-rw",
                            "width": 544,
                            "height": 544,
                            "placeholder": "https://beatbump.io/i/lh3/A3VgIALmQi6i8bo-BXtCnzMVaQ2Kc-8V08vbI3nilN0jORPOetO61ekY7nlXZAbkRKLG7Pk26Lp5Vyk=w1-h1-fSoften=50,50,05-l90-rw"
                        }
                    ],
                    "aspectRatio": "MUSIC_TWO_ROW_ITEM_THUMBNAIL_ASPECT_RATIO_SQUARE",
                    "playlistId": "RDCLAK5uy_nckDkSsmtJBauBGf3ZXTzct7Jn1n4koE0",
                    "endpoint": {
                        "browseId": "VLRDCLAK5uy_nckDkSsmtJBauBGf3ZXTzct7Jn1n4koE0",
                        "pageType": "MUSIC_PAGE_TYPE_PLAYLIST"
                    },
                    "subtitle": [
                        {
                            "text": "Master Saleem, Feroz Khan, Sardool Sikander, Kanth Kaler"
                        }
                    ]
                },
                {
                    "title": "Sri Krishna: Haryanvi",
                    "thumbnails": [
                        {
                            "url": "https://beatbump.io/i/lh3/XWfzHkIOWZrvllwY-0AYGZqYHGtlY_ZlOLZuQzEFKpluXDPXie1cBbAslhdyikaufgfHJuedqg9gG9M=w226-h226-l90-rw",
                            "width": 226,
                            "height": 226,
                            "placeholder": "https://beatbump.io/i/lh3/XWfzHkIOWZrvllwY-0AYGZqYHGtlY_ZlOLZuQzEFKpluXDPXie1cBbAslhdyikaufgfHJuedqg9gG9M=w1-h1-fSoften=50,50,05-l90-rw"
                        },
                        {
                            "url": "https://beatbump.io/i/lh3/XWfzHkIOWZrvllwY-0AYGZqYHGtlY_ZlOLZuQzEFKpluXDPXie1cBbAslhdyikaufgfHJuedqg9gG9M=w544-h544-l90-rw",
                            "width": 544,
                            "height": 544,
                            "placeholder": "https://beatbump.io/i/lh3/XWfzHkIOWZrvllwY-0AYGZqYHGtlY_ZlOLZuQzEFKpluXDPXie1cBbAslhdyikaufgfHJuedqg9gG9M=w1-h1-fSoften=50,50,05-l90-rw"
                        }
                    ],
                    "aspectRatio": "MUSIC_TWO_ROW_ITEM_THUMBNAIL_ASPECT_RATIO_SQUARE",
                    "playlistId": "RDCLAK5uy_lbatDtVep1jRjoe8T9KDWth6ChkxwBFHQ",
                    "endpoint": {
                        "browseId": "VLRDCLAK5uy_lbatDtVep1jRjoe8T9KDWth6ChkxwBFHQ",
                        "pageType": "MUSIC_PAGE_TYPE_PLAYLIST"
                    },
                    "subtitle": [
                        {
                            "text": "P. Ram Avtar Sharma, Saijal, Rekha Garg, Dolly Sharma"
                        }
                    ]
                },
                {
                    "title": "Jai Shri Ram: Haryanvi",
                    "thumbnails": [
                        {
                            "url": "https://beatbump.io/i/lh3/rcZB_YMJagBkd0lem_yb921dx7IuDnIrZ0MxCFdqPKaklEh8tSG4a1eIflQHPlncXjMo-QTh3reGahY=w226-h226-l90-rw",
                            "width": 226,
                            "height": 226,
                            "placeholder": "https://beatbump.io/i/lh3/rcZB_YMJagBkd0lem_yb921dx7IuDnIrZ0MxCFdqPKaklEh8tSG4a1eIflQHPlncXjMo-QTh3reGahY=w1-h1-fSoften=50,50,05-l90-rw"
                        },
                        {
                            "url": "https://beatbump.io/i/lh3/rcZB_YMJagBkd0lem_yb921dx7IuDnIrZ0MxCFdqPKaklEh8tSG4a1eIflQHPlncXjMo-QTh3reGahY=w544-h544-l90-rw",
                            "width": 544,
                            "height": 544,
                            "placeholder": "https://beatbump.io/i/lh3/rcZB_YMJagBkd0lem_yb921dx7IuDnIrZ0MxCFdqPKaklEh8tSG4a1eIflQHPlncXjMo-QTh3reGahY=w1-h1-fSoften=50,50,05-l90-rw"
                        }
                    ],
                    "aspectRatio": "MUSIC_TWO_ROW_ITEM_THUMBNAIL_ASPECT_RATIO_SQUARE",
                    "playlistId": "RDCLAK5uy_lWgtwFiIcfaa0V32kRjKwENmrtGGaDXrU",
                    "endpoint": {
                        "browseId": "VLRDCLAK5uy_lWgtwFiIcfaa0V32kRjKwENmrtGGaDXrU",
                        "pageType": "MUSIC_PAGE_TYPE_PLAYLIST"
                    },
                    "subtitle": [
                        {
                            "text": "Narender Kaushik, Suresh Wadkar, Vaibhav Vashisth, Narendra Kaushik"
                        }
                    ]
                }
            ],
            "type": "carousel"
        }
    ],
    "headerThumbnail": [
        {
            "url": "https://lh3.googleusercontent.com/g9lup2u8M2TMJh2ef3Ty3D_eMe0e9O-lInUnEBVteBg04KsAGcpiq8rllqF0xTPUnoLPSaejp9hKUQ=w1500-h844-l90-rj",
            "width": 1500,
            "height": 844
        }
    ],
    "chips": [
        {
            "text": "Romance",
            "browseEndpoint": {
                "browseId": "FEmusic_home",
                "params": "ggNCSgQIDRADSgQICBABSgQIDBABSgQIDhABSgQIBxABSgQICRABSgQIAxABSgQIBBABSgQIChABSgQIBhABSgQIBRAB"
            }
        },
        {
            "text": "Feel good",
            "browseEndpoint": {
                "browseId": "FEmusic_home",
                "params": "ggNCSgQIDRABSgQICBADSgQIDBABSgQIDhABSgQIBxABSgQICRABSgQIAxABSgQIBBABSgQIChABSgQIBhABSgQIBRAB"
            }
        },
        {
            "text": "Podcasts",
            "browseEndpoint": {
                "browseId": "FEmusic_home",
                "params": "ggNCSgQIDRABSgQICBABSgQIDBADSgQIDhABSgQIBxABSgQICRABSgQIAxABSgQIBBABSgQIChABSgQIBhABSgQIBRAB"
            }
        },
        {
            "text": "Party",
            "browseEndpoint": {
                "browseId": "FEmusic_home",
                "params": "ggNCSgQIDRABSgQICBABSgQIDBABSgQIDhADSgQIBxABSgQICRABSgQIAxABSgQIBBABSgQIChABSgQIBhABSgQIBRAB"
            }
        },
        {
            "text": "Relax",
            "browseEndpoint": {
                "browseId": "FEmusic_home",
                "params": "ggNCSgQIDRABSgQICBABSgQIDBABSgQIDhABSgQIBxADSgQICRABSgQIAxABSgQIBBABSgQIChABSgQIBhABSgQIBRAB"
            }
        },
        {
            "text": "Energize",
            "browseEndpoint": {
                "browseId": "FEmusic_home",
                "params": "ggNCSgQIDRABSgQICBABSgQIDBABSgQIDhABSgQIBxABSgQICRADSgQIAxABSgQIBBABSgQIChABSgQIBhABSgQIBRAB"
            }
        },
        {
            "text": "Commute",
            "browseEndpoint": {
                "browseId": "FEmusic_home",
                "params": "ggNCSgQIDRABSgQICBABSgQIDBABSgQIDhABSgQIBxABSgQICRABSgQIAxADSgQIBBABSgQIChABSgQIBhABSgQIBRAB"
            }
        },
        {
            "text": "Workout",
            "browseEndpoint": {
                "browseId": "FEmusic_home",
                "params": "ggNCSgQIDRABSgQICBABSgQIDBABSgQIDhABSgQIBxABSgQICRABSgQIAxABSgQIBBADSgQIChABSgQIBhABSgQIBRAB"
            }
        },
        {
            "text": "Sad",
            "browseEndpoint": {
                "browseId": "FEmusic_home",
                "params": "ggNCSgQIDRABSgQICBABSgQIDBABSgQIDhABSgQIBxABSgQICRABSgQIAxABSgQIBBABSgQIChADSgQIBhABSgQIBRAB"
            }
        },
        {
            "text": "Focus",
            "browseEndpoint": {
                "browseId": "FEmusic_home",
                "params": "ggNCSgQIDRABSgQICBABSgQIDBABSgQIDhABSgQIBxABSgQICRABSgQIAxABSgQIBBABSgQIChABSgQIBhADSgQIBRAB"
            }
        },
        {
            "text": "Sleep",
            "browseEndpoint": {
                "browseId": "FEmusic_home",
                "params": "ggNCSgQIDRABSgQICBABSgQIDBABSgQIDhABSgQIBxABSgQICRABSgQIAxABSgQIBBABSgQIChABSgQIBhABSgQIBRAD"
            }
        }
    ],
    "visitorData": "CgtrVzZSalFjZjJVbyjP4MCvBjIKCgJJThIEGgAgTw%3D%3D",
    "continuations": {
        "continuation": "4qmFsgKhAhIMRkVtdXNpY19ob21lGpACQ0FONnh3RkhTbmx6YmkxdVJEZHZVVVJYYjBWQ1EyNDRTMHBJYkRCWU0wSm9XakpXWm1NeU5XaGpTRTV2WWpOU1ptSllWbnBoVjA1bVkwZEdibHBXT1hsYVYyUndZakkxYUdKQ1NXWldWR3N5WVRJeGVVOVZVakpUVkZKcVVWVlNSR0pZV25oalZtaHFXVzVLZEZkck1YcGhhbEkwV25odk1sUllWbnBoVjA1RllWaE9hbUl6V214amJteFJXVmRrYkZVeVZubGtiV3hxV2xNeFNGcFlVa2xpTWpGc1ZVZEdibHBSUVVKQlIxWjFRVUZHU2xSblFVSlRWVFJCUVZGRlJDMXdla2gyVVd0RFEwRlI%3D",
        "clickTrackingParams": "CBAQybcCIhMI8-KM6cPuhAMV7YjYBR0UMAzT"
    }
}